
(module SOIC127P600X175-8N (layer F.Cu) (tedit 622CDB38)
  (descr "")
  (fp_text reference REF** (at -0.731325 -3.766835 0) (layer F.SilkS)
    (effects (font (size 1.00181889764 1.00181889764) (thickness 0.15)))
  )
  (fp_text value SOIC127P600X175-8N (at 7.5382 3.666445 0) (layer F.Fab)
    (effects (font (size 1.00175590551 1.00175590551) (thickness 0.15)))
  )
  (pad 2 smd rect (at -2.6 -0.635 270.0) (size 0.6 2.2) (layers F.Cu F.Mask F.Paste))
  (pad 7 smd rect (at 2.6 -0.635 270.0) (size 0.6 2.2) (layers F.Cu F.Mask F.Paste))
  (pad 1 smd rect (at -2.6 -1.905 270.0) (size 0.6 2.2) (layers F.Cu F.Mask F.Paste))
  (pad 3 smd rect (at -2.6 0.635 270.0) (size 0.6 2.2) (layers F.Cu F.Mask F.Paste))
  (pad 4 smd rect (at -2.6 1.905 270.0) (size 0.6 2.2) (layers F.Cu F.Mask F.Paste))
  (pad 8 smd rect (at 2.6 -1.905 270.0) (size 0.6 2.2) (layers F.Cu F.Mask F.Paste))
  (pad 6 smd rect (at 2.6 0.635 270.0) (size 0.6 2.2) (layers F.Cu F.Mask F.Paste))
  (pad 5 smd rect (at 2.6 1.905 270.0) (size 0.6 2.2) (layers F.Cu F.Mask F.Paste))
  (fp_line (start 1.9 2.5) (end -1.9 2.5) (layer F.SilkS) (width 0.2032))
  (fp_line (start -1.9 2.5) (end -1.9 -2.5) (layer F.Fab) (width 0.2032))
  (fp_line (start -1.9 -2.5) (end 1.9 -2.5) (layer F.SilkS) (width 0.2032))
  (fp_line (start 1.9 -2.5) (end 1.9 2.5) (layer F.Fab) (width 0.2032))
  (fp_line (start -1.4 2.5) (end -1.4 -2.5) (layer F.Fab) (width 0.2032))
  (fp_poly
    (pts
      (xy -2.7972 -2.45505)
      (xy -2.30495 -2.45505)
      (xy -2.30495 -1.35594)
      (xy -2.7972 -1.35594)
    ) (layer F.Fab) (width 0.01)
  )
  (fp_poly
    (pts
      (xy -2.79562 -1.18505)
      (xy -2.30495 -1.18505)
      (xy -2.30495 -0.0849642)
      (xy -2.79562 -0.0849642)
    ) (layer F.Fab) (width 0.01)
  )
  (fp_poly
    (pts
      (xy -2.79551 0.08495)
      (xy -2.30495 0.08495)
      (xy -2.30495 1.1852)
      (xy -2.79551 1.1852)
    ) (layer F.Fab) (width 0.01)
  )
  (fp_poly
    (pts
      (xy -2.7984 1.35495)
      (xy -2.30495 1.35495)
      (xy -2.30495 2.4579)
      (xy -2.7984 2.4579)
    ) (layer F.Fab) (width 0.01)
  )
  (fp_poly
    (pts
      (xy 2.30655 1.35495)
      (xy 2.79515 1.35495)
      (xy 2.79515 2.45675)
      (xy 2.30655 2.45675)
    ) (layer F.Fab) (width 0.01)
  )
  (fp_poly
    (pts
      (xy 2.30548 0.08495)
      (xy 2.79515 0.08495)
      (xy 2.79515 1.18532)
      (xy 2.30548 1.18532)
    ) (layer F.Fab) (width 0.01)
  )
  (fp_poly
    (pts
      (xy 2.30847 -1.18505)
      (xy 2.79515 -1.18505)
      (xy 2.79515 -0.0850796)
      (xy 2.30847 -0.0850796)
    ) (layer F.Fab) (width 0.01)
  )
  (fp_poly
    (pts
      (xy 2.30816 -2.45505)
      (xy 2.79515 -2.45505)
      (xy 2.79515 -1.35684)
      (xy 2.30816 -1.35684)
    ) (layer F.Fab) (width 0.01)
  )
  (fp_circle (center -3.5 -2.65) (end -3.3 -2.65) (layer F.SilkS) (width 0.0))
  (fp_line (start -4.0 -2.95) (end 4.0 -2.95) (layer F.CrtYd) (width 0.127))
  (fp_line (start 4.0 -2.95) (end 4.0 2.85) (layer F.CrtYd) (width 0.127))
  (fp_line (start 4.0 2.85) (end -4.0 2.85) (layer F.CrtYd) (width 0.127))
  (fp_line (start -4.0 2.85) (end -4.0 -2.95) (layer F.CrtYd) (width 0.127))
  (fp_circle (center -0.9 -1.9) (end -0.617159 -1.9) (layer F.Fab) (width 0.127))
)